{
  "home": [
    "Home",      (en)
    "الرئيسية",    (ar)
  ],
  "dashboard": [
    "Dashboard",    (en)
    "قائمة سلعي المعروضة",  (ar)
  ],
  "about": [
    "About",    (en)
    "من نحن؟",  (ar)
  ],
  "inbox": [
    "Inbox",    (en)
    "صندوق الوارد",  (ar)
  ],
  "buy": [
    "Buy",    (en)
    "شراء",  (ar)
  ],
  "sell": [
    "Sell",    (en)
    "بيع",  (ar)
  ],
  "login": [
    "Login",    (en)
    "دخول",  (ar)
  ],
  "logout": [
    "Logout",    (en)
    "خروج",  (ar)
  ],
  "register": [
    "Register",    (en)
    "التسجيل",  (ar)
  ],
  "username": [
    "Username",    (en)
    "اسم المستخدم",  (ar)
  ],
  "password": [
    "Password",    (en)
    "كلمة المرور",  (ar)
  ],
  "first_name": [
    "First Name",    (en)
    "الاسم الأول ",  (ar)
  ],
  "last_name": [
    "Last Name",    (en)
    "اسم العائلة",  (ar)
  ],
  "email": [
    "Email",    (en)
    "البريد الإلكتروني",  (ar)
  ],
  "confirm_password": [
    "Confirm Password",    (en)
    "تأكيد كلمة المرور",  (ar)
  ],
  "your_2ndhandcam_account": [
    "Your 2ndhandcam Account",    (en)
    "حسابك الشخصي",  (ar)
  ],
  "welcome_back": [
    "Welcome Back",    (en)
    "أهلاً بك مجدّداً",  (ar)
  ],
  "for_sale_items": [
    "For Sale Items",    (en)
    "سلع معروضة للبيع",  (ar)
  ],
  "brand": [
    "Brand",    (en)
    "العلامة تجارية",  (ar)
  ],
  "model": [
    "Model",    (en)
    "الموديل",  (ar)
  ],
  "price": [
    "Price",    (en)
    "السعر",  (ar)
  ],
  "status": [
    "Status",    (en)
    "الحالة",  (ar)
  ],
  "edit": [
    "Edit",    (en)
    "تحرير",  (ar)
  ],
  "remove": [
    "Remove",    (en)
    "حذف",  (ar)
  ],
  "you_have": [
    "You have",    (en)
    "عندك",  (ar)
  ],
  "new_messages": [
    "new message/s",    (en)
    "رسائل جديدة",  (ar)
  ],
  "sender": [
    "Sender",    (en)
    "المرسل",  (ar)
  ],
  "message": [
    "Message",    (en)
    "رسالة ",  (ar)
  ],
  "sent": [
    "Sent",    (en)
    "مرسلة",  (ar)
  ],
  "messages": [
    "Messages",    (en)
    "رسائل",  (ar)
  ],
  "what_item_would_you_like_to_buy?": [
    "What item would you like to buy?",    (en)
    "ما هي السلعة التي ترغب في شراءها؟",  (ar)
  ],
  "photography_cameras": [
    "Photography Cameras",    (en)
    "كاميرات فوتوغرافية",  (ar)
  ],
  "lenses": [
    "Lenses",    (en)
    "عدسات",  (ar)
  ],
  "video_cameras": [
    "Video Cameras",    (en)
    "كاميرات فيديو",  (ar)
  ],
  "lighting": [
    "Lighting",    (en)
    "إضاءات",  (ar)
  ],
  "accessories": [
    "Accessories",    (en)
    "إكسسوارات",  (ar)
  ],
  "grid": [
    "Grid",    (en)
    "عرض افقي ",  (ar)
  ],
  "list": [
    "List",    (en)
    "عرض عامودي",  (ar)
  ],
  "search_camera": [
    "Search Camera",    (en)
    "ابحث عن الكاميرا",  (ar)
  ],
  "top_highlights": [
    "Top Highlights",    (en)
    "أبرز الخصائص",  (ar)
  ],
  "item_condition": [
    "Item Condition",    (en)
    "حالة السلعة",  (ar)
  ],
  "seller": [
    "Seller",    (en)
    "البائع",  (ar)
  ],
  "location": [
    "Location",    (en)
    "الموقع",  (ar)
  ],
  "features": [
    "Features",    (en)
    "المميزات",  (ar)
  ],
  "specifications": [
    "Specifications",    (en)
    "المواصفات",  (ar)
  ],
  "seller_reviews": [
    "Seller Reviews",    (en)
    "Au revoir",  (ar)
  ],
  "highlights": [
    "Highlights",    (en)
    "أهم الخصائص ",  (ar)
  ],
  "actual_photo": [
    "Actual Photo",    (en)
    "صورة السلعة",  (ar)
  ],
  "send_seller_a_message": [
    "Send Seller a Message",    (en)
    "تواصل مع البائع",  (ar)
  ],
  "default_buyer_message": [
    "Hi, Im interested in this item. Is it available?",    (en)
    "أهلا، لدي الرغبة في شراء المنتج المعروض",  (ar)
  ],
  "submit": [
    "Submit",    (en)
    "إتمام",  (ar)
  ],
  "contact_number": [
    "Contact Number",    (en)
    "رقم التواصل",  (ar)
  ],
  "how_it_works": [
    "How it works",    (en)
    "كيف يعمل الموقع؟",  (ar)
  ],
  "create_an_account": [
    "How it works",    (en)
    "تسجيل حساب جديد",  (ar)
  ]
  ,
  "It takes less than a minute to register an account.": [
    "It takes less than a minute to register an account.",    (en)
    "تحتاج اقل من دقيقة لتسجيل حساب",  (ar)
  ]
  ,
  "All you need is a valid email address.": [
    "All you need is a valid email address.",    (en)
    "كل ما تحتاج إلية هو بريد إلكتروني مفعّل",  (ar)
  ]
  ,
  "FILL UP THE FORM": [
    "FILL UP THE FORM",    (en)
    "الرجاء تعبئة الحقول",  (ar)
  ]
  ,
  "Choose an item you want to sell.": [
    "Choose an item you want to sell.",    (en)
    "اختر السلعة المراد بيعها",  (ar)
  ]
  ,
  "Name your price, the condition of the item and its actual photo": [
    "Name your price, the condition of the item and its actual photo",    (en)
    "سعّر سلعتك، اختار حالة السلعة من الحقول وأضف صورة للسلعة",  (ar)
  ]
  ,
  "GET CONNECTED WITH THE POTENTIAL BUYER": [
    "GET CONNECTED WITH THE POTENTIAL BUYER",    (en)
    "احصل على مشتري لسلعتك بسهولة ويسر",  (ar)
  ]
  ,
  "Receive messages via the websites messaging system.": [
    "Receive messages via the websites messaging system.",    (en)
    "استلم الرسائل عن طريق الموقع ",  (ar)
  ]
  ,
  "Or directly to your registered mobile number.": [
    "Or directly to your registered mobile number.",    (en)
    "أو مباشرة عن طريق جوالك المسجل لدينا",  (ar)
  ]
  ,
  "Still Camera": [
    "Still Camera",    (en)
    "كاميرات فوتوغرافية",  (ar)
  ]
  ,
  "Video Camera": [
    "Video Camera",    (en)
    "كاميرات فيديو ",  (ar)
  ]
  ,
  "Choose Camera Brand": [
    "Choose Camera Brand",    (en)
    "اختر العلامة التجارية للكاميرا",  (ar)
  ]
  ,
  "Loading Camera Models": [
    "Loading Camera Models",    (en)
    "تحميل موديلات الكاميرات ",  (ar)
  ]
  ,
  "All Cameras": [
    "All Cameras",    (en)
    "جميع الكاميرات ",  (ar)
  ]
  ,
  "All Lenses": [
    "All Lenses",    (en)
    "جميع العدسات ",  (ar)
  ]
  ,
  "All Lightings": [
    "All Lightings",    (en)
    "جميع الإضاءات",  (ar)
  ]
  ,
  "All Accessories": [
    "All Accessories",    (en)
    "جميع الإكسسوارات",  (ar)
  ]
  ,
  "Please fill up the form and the system will autogenerate other details.": [
    "Please fill up the form and the system will autogenerate other details.",    (en)
    "الرجاء تعبئة الحقول وسيعرض الموقع تلقائياً جميع مواصفات ومميزات السلعة للمشتري",  (ar)
  ]
  ,
  "Body Only": [
    "Body Only",    (en)
    "كاميرا فقط",  (ar)
  ]
  ,
  "With Lens": [
    "With Lens",    (en)
    "مع عدسة",  (ar)
  ]
  ,
  "With Accessories": [
    "With Accessories",    (en)
    "مع إكسسوارات ",  (ar)
  ]
  ,
  "With Lens and Accessories": [
    "With Lens and Accessories",    (en)
    "مع عدسة وإكسسوارات",  (ar)
  ]
  ,
  "Accessories Description": [
    "Accessories Description",    (en)
    "وصف للإكسسوار المضاف",  (ar)
  ]
  ,
  "Shutter Count": [
    "Shutter Count",    (en)
    "عدد الشتر",  (ar)
  ]
  ,
  "Warranty": [
    "Warranty",    (en)
    "الضمان ",  (ar)
  ]
  ,
  "Select Warranty": [
    "Select Warranty",    (en)
    "اختر الضمان",  (ar)
  ]
  ,
  "No Warranty": [
    "Shutter Count",    (en)
    "لا يوجد ضمان ",  (ar)
  ]
  ,
  "One (1) Week": [
    "One (1) Week",    (en)
    "اسبوع",  (ar)
  ]
  ,
  "Two (2) Weeks": [
    "Two (2) Weeks",    (en)
    "اسبوعين ",  (ar)
  ]
  ,
  "One  (1) Month": [
    "One  (1) Month",    (en)
    "شهر",  (ar)
  ]
  ,
  "Condition": [
    "Condition",    (en)
    "حالة السلعة",  (ar)
  ]
  ,
  "Select Camera Condition": [
    "Select Camera Condition",    (en)
    "اختار حالة السلعة ",  (ar)
  ]
  ,
  "Brand New": [
    "Brand New",    (en)
    "تعتبر جديدة",  (ar)
  ]
  ,
  "Decently Used": [
    "Decently Used",    (en)
    "استخدمت بشكل نظيف وجيد",  (ar)
  ]
  ,
  "Used for Demo only": [
    "Used for Demo only",    (en)
    "استخدمت للعرض فقط ",  (ar)
  ]
  ,
  "Shows sign of use, but works perfectly": [
    "Shows sign of use, but works perfectly",    (en)
    "تظهر عليها علامات الاستخدام، ولكن لا تزال تعمل بشكل جيد",  (ar)
  ]
  ,
  "Shows some wear ": [
    "Shows some wear ",    (en)
    "تظهر عليها ندوب او تآكل ",  (ar)
  ]
  ,
  "Manufacturer defect": [
    "Manufacturer defect",    (en)
    "يوجد بها عيب مصنعي ",  (ar)
  ]
  ,
  "Broken but still works fine": [
    "Broken but still works fine",    (en)
    "مكسورة ولكن تعمل بشكل جيد",  (ar)
  ]
  ,
  "Broken and need some maintenance ": [
    "Broken and need some maintenance ",    (en)
    "مكسورة وتحتاج صيانة لتعمل",  (ar)
  ]
  ,
  "Choose images": [
    "Choose images",    (en)
    "اختار الصورة",  (ar)
  ]
  ,
  "Choose Category": [
    "Choose Category",    (en)
    "اختر الفئة",  (ar)
  ]
  ,
  "Light Modifiers": [
    "Light Modifiers",    (en)
    "المظلات وصناديق الإضاءات وملحقاتها",  (ar)
  ]
  ,
  "Light Stand and Mounting": [
    "Light Stand and Mounting",    (en)
    "حوامل الإضاءات ",  (ar)
  ]
  ,
  "Powers & Cables": [
    "Powers & Cables",    (en)
    "الكابلات وملحقاتها",  (ar)
  ]
  ,
  "Radio & Optical Slave": [
    "Radio & Optical Slave",    (en)
    "أجهزة التحكم ( ريموتات )",  (ar)
  ]
  ,
  "Light Meters": [
    "Light Meters",    (en)
    "وحدات قياس الإضاءة",  (ar)
  ]
  ,
  "Light Cases": [
    "Light Cases",    (en)
    "حقائب الإضاءات",  (ar)
  ]
  ,
  "Camera Bags": [
    "Camera Bags",    (en)
    "حقائب الكاميرات",  (ar)
  ]
  ,
  "Tripods": [
    "Tripods",    (en)
    "حوامل الكاميرات",  (ar)
  ]
  ,
  "Others": [
    "Others",    (en)
    "آخرى",  (ar)
  ]
  ,
  "Comments": [
    "Comments",    (en)
    "ملاحظات",  (ar)
  ]
  ,
  "Continuous Lighting": [
    "Continuous Lighting",    (en)
    "إضاءات مستمرة",  (ar)
  ]
  ,
  "Strobe Lighting": [
    "Strobe Lighting",    (en)
    "إضاءات الإستديو",  (ar)
  ]
  ,
  "Flashes and On Camera Lighting": [
    "Flashes and On Camera Lighting",    (en)
    "فلاشات خارجية صغيرة",  (ar)
  ]
  ,
  "Monolights": [
    "Monolights",    (en)
    "فلاشات الإستديو",  (ar)
  ]
  ,
  "Battery Powered Strobes": [
    "Battery Powered Strobes",    (en)
    "إضاءات الإستديو بالبطاريات",  (ar)
  ]
  ,
  "Power Packs": [
    "Power Packs",    (en)
    "بطاريات وملحقاتها",  (ar)
  ]
  ,
  "Slaves": [
    "Slaves",    (en)
    "إضاءات تابعة",  (ar)
  ]
  ,
  "Choose Video Camera Brand": [
    "Choose Video Camera Brand",    (en)
    "اختر العلامة التجارية لكاميرات الفيديو",  (ar)
  ]
  ,
  "Loading Video camera models": [
    "Loading Video camera models",    (en)
    "تحميل الموديلات",  (ar)
  ]
  ,
  "Choose Lens Brand": [
    "Choose Lens Brand",    (en)
    "اختر العلامة التجارية للعدسة",  (ar)
  ]
  ,
  "Loading Lens Model": [
    "Loading Lens Model",    (en)
    "اختر موديل العدسة",  (ar)
  ]
  ,
  "Add Lens": [
    "Add Lens",    (en)
    "أضف عدسة",  (ar)
  ]
  ,
  "Add Accessories": [
    "Add Accessories",    (en)
    "أضف إكسسوار ",  (ar)
  ]
  ,
  "Activated": [
    "Activated",    (en)
    "نشط",  (ar)
  ]
  ,
  "Reactivate": [
    "Reactivate",    (en)
    "إعادة تنشيط",  (ar)
  ]
  ,
  "Expiry": [
    "Expiry",    (en)
    "الصلاحية حتى",  (ar)
  ]
  ,
  "Expired": [
    "Expired",    (en)
    "منتهي الصلاحية",  (ar)
  ]
  ,
  "Disable": [
    "Disable",    (en)
    "إخفاء",  (ar)
  ]
  ,
  "Enable": [
    "Enable",    (en)
    "إعادة إظهار",  (ar)
  ]
  ,
  "Remove": [
    "Remove",    (en)
    "حذف",  (ar)
  ]
  ,
  "Active": [
    "Active",    (en)
    "نشط",  (ar)
  ]
  ,
  "Product Type": [
    "Product Type",    (en)
    "نوع المنتج",  (ar)
  ]
  ,
  "Cancel": [
    "Cancel",    (en)
    "إلغاء",  (ar)
  ]
  ,
  "Upload Camera Photos": [
    "Upload Camera Photos",    (en)
    "أضف صور الكاميرا",  (ar)
  ]
  ,
  "Upload Lens Photos": [
    "Upload Lens Photos",    (en)
    "أضف صور العدسة",  (ar)
  ]
  ,
  "Upload Accessories Photos": [
    "Upload Accessories Photos",    (en)
    "أضف صور الإكسسوارات",  (ar)
  ]
  ,
  "Upload Lenses & Accessories Photos": [
    "Upload Lenses & Accessories Photos",    (en)
    "أضف صور العدسة والإكسسوارات",  (ar)
  ]
  ,
  "Delete": [
    "Delete",    (en)
    "حذف",  (ar)
  ]
  ,
  "Sold": [
    "Sold",    (en)
    "تم البيع",  (ar)
  ]
  ,
  "Sold On": [
    "Sold On",    (en)
    "تم البيع في",  (ar)
  ]
}